#define CurTextPath_width 16
#define CurTextPath_height 16
#define CurTextPath_x_hot 6
#define CurTextPath_y_hot 8
static char CurTextPath_bits[] = {
   0x00, 0x00, 0xfc, 0x01, 0x20, 0x00, 0x20, 0x00, 0x20, 0x00, 0x20, 0x00,
   0x20, 0x00, 0x20, 0x04, 0x20, 0x08, 0x20, 0x10, 0x20, 0x10, 0x20, 0x10,
   0x20, 0x10, 0x20, 0x20, 0xfc, 0x41, 0x00, 0x00 };
