/* XPM */
static char *noname[] = {
/* width height ncolors chars_per_pixel */
"14 14 2 1",
/* colors */
"  c #000",
". c none",
/* pixels */
"..      ......",
".. ....  .....",
".. .... . ....",
".. ....    ...",
".. ....... ...",
".. ....... ...",
".. ....... ...",
".. ....... ...",
".. ....... ...",
".. ....... ...",
".. ....... ...",
".. ....... ...",
".. ....... ...",
"..         ..."
};
